https://www.facebook.com/profile.php?id=100003563130499
https://www.facebook.com/profile.php?id=621017590
https://www.facebook.com/Hülya-Erdem-111751313846537
https://www.facebook.com/Keles-Belediyesi-1522353218086722
https://www.facebook.com/besiktasbelediyesi
https://www.facebook.com/SultanbeyliBel
https://www.facebook.com/Arnavutkoybelediyesi
https://www.facebook.com/EsenyurtBLDYS
https://www.facebook.com/Buyukcekmecebld
https://www.facebook.com/KaracabeyBel
